         run       event       nTopo   nIdTracks  nTauTracks       nTaus      nMuons       nElec   nTrueElec   nFakeElec       nPhot   nTruePhot   nFakePhot
      242000     3120001         249           8           2           1           1           0           0           0           0           0           0
      242000     3120002         153           6           0           0           1           0           0           0           0           0           0
      242000     3120003         356          36           7           2           2           1           0           1           0           0           0
      242000     3120004         170          10           5           1           0           0           0           0           0           0           0
      242000     3120005         409          40           7           2           3           1           0           1           3           1           2
